Endpoint is :https://reqres.in/api/users/2

Request Body is :{
    "name": "Ravin",
    "job": "electrical engg"
}

Response Body is :{"name":"Ravin","job":"electrical engg","updatedAt":"2023-12-12T14:08:07.459Z"}